Manipulação via dplyr | Fábio Nishida
…
Filtre linhas com filter()

Permite selecionar um subconjunto de linhas de um data frame

filter(.data, ...)

.data: A data frame, data frame extension (e.g. a tibble), or a lazy data frame (e.g. from dbplyr or dtplyr).
...	: <data-masking> Expressions that return a logical value, and are defined in terms of the variables in .data. If multiple expressions are included, they are combined with the & operator. Only rows for which all conditions evaluate to TRUE are kept.

starwars1 = filter(starwars, species == "Human", height >= 100)
starwars1

## # A tibble: 31 × 14
##    name     height  mass hair_color skin_color eye_color birth_year sex   gender
##    <chr>     <int> <dbl> <chr>      <chr>      <chr>          <dbl> <chr> <chr> 
##  1 Luke Sk…    172    77 blond      fair       blue            19   male  mascu…
##  2 Darth V…    202   136 none       white      yellow          41.9 male  mascu…
##  3 Leia Or…    150    49 brown      light      brown           19   fema… femin…
##  4 Owen La…    178   120 brown, gr… light      blue            52   male  mascu…
##  5 Beru Wh…    165    75 brown      light      blue            47   fema… femin…
##  6 Biggs D…    183    84 black      light      brown           24   male  mascu…
##  7 Obi-Wan…    182    77 auburn, w… fair       blue-gray       57   male  mascu…
##  8 Anakin …    188    84 blond      fair       blue            41.9 male  mascu…
##  9 Wilhuff…    180    NA auburn, g… fair       blue            64   male  mascu…
## 10 Han Solo    180    80 brown      fair       brown           29   male  mascu…
## # ℹ 21 more rows
## # ℹ 5 more variables: homeworld <chr>, species <chr>, films <list>,
## #   vehicles <list>, starships <list>

# Equivalente a:
starwars[starwars$species == "Human" & starwars$height >= 100, ]

## # A tibble: 39 × 14
##    name     height  mass hair_color skin_color eye_color birth_year sex   gender
##    <chr>     <int> <dbl> <chr>      <chr>      <chr>          <dbl> <chr> <chr> 
##  1 Luke Sk…    172    77 blond      fair       blue            19   male  mascu…
##  2 Darth V…    202   136 none       white      yellow          41.9 male  mascu…
##  3 Leia Or…    150    49 brown      light      brown           19   fema… femin…
##  4 Owen La…    178   120 brown, gr… light      blue            52   male  mascu…
##  5 Beru Wh…    165    75 brown      light      blue            47   fema… femin…
##  6 Biggs D…    183    84 black      light      brown           24   male  mascu…
##  7 Obi-Wan…    182    77 auburn, w… fair       blue-gray       57   male  mascu…
##  8 Anakin …    188    84 blond      fair       blue            41.9 male  mascu…
##  9 Wilhuff…    180    NA auburn, g… fair       blue            64   male  mascu…
## 10 Han Solo    180    80 brown      fair       brown           29   male  mascu…
## # ℹ 29 more rows
## # ℹ 5 more variables: homeworld <chr>, species <chr>, films <list>,
## #   vehicles <list>, starships <list>
…
Reordena as linhas a partir de um conjunto de nomes de coluna

arrange(.data, ..., .by_group = FALSE)

.data: A data frame, data frame extension (e.g. a tibble), or a lazy data frame (e.g. from dbplyr or dtplyr).
... : <data-masking> Variables, or functions of variables. Use desc() to sort a variable in descending order.

Se for inserido mais de um nome de variável, organiza de acordo com a 1ª variável e, em caso de ter linhas com o mesmo valor na 1ª variável, ordena estas linhas de mesmo valor de acordo com a 2ª variável

Para usar a ordem decrescente, temos a função desc()

starwars2 = arrange(starwars1, height, desc(mass))
starwars2

## # A tibble: 31 × 14
##    name     height  mass hair_color skin_color eye_color birth_year sex   gender
##    <chr>     <int> <dbl> <chr>      <chr>      <chr>          <dbl> <chr> <chr> 
##  1 Leia Or…    150    49 brown      light      brown             19 fema… femin…
##  2 Mon Mot…    150    NA auburn     fair       blue              48 fema… femin…
##  3 Cordé       157    NA brown      light      brown             NA fema… femin…
##  4 Shmi Sk…    163    NA black      fair       brown             72 fema… femin…
##  5 Beru Wh…    165    75 brown      light      blue              47 fema… femin…
##  6 Padmé A…    165    45 brown      light      brown             46 fema… femin…
##  7 Dormé       165    NA brown      light      brown             NA fema… femin…
##  8 Jocasta…    167    NA white      fair       blue              NA fema… femin…
##  9 Wedge A…    170    77 brown      fair       hazel             21 male  mascu…
## 10 Palpati…    170    75 grey       pale       yellow            82 male  mascu…
## # ℹ 21 more rows
## # ℹ 5 more variables: homeworld <chr>, species <chr>, films <list>,
## #   vehicles <list>, starships <list>
…
Coloca-se os nomes das colunas desejadas para selecioná-las.

Também é possível selecionar um intervalo de variáveis usando var1:var2

Caso queira tirar apenas algumas colunas, basta informar o nome delas precedidas pelo sinal de subtração (-var)

starwars3 = select(starwars2, name:eye_color, sex:species)
# equivalente: select(starwars2, -birth_year, -c(films:starships))
starwars3

## # A tibble: 31 × 10
##    name      height  mass hair_color skin_color eye_color sex   gender homeworld
##    <chr>      <int> <dbl> <chr>      <chr>      <chr>     <chr> <chr>  <chr>    
##  1 Leia Org…    150    49 brown      light      brown     fema… femin… Alderaan 
##  2 Mon Moth…    150    NA auburn     fair       blue      fema… femin… Chandrila
##  3 Cordé        157    NA brown      light      brown     fema… femin… Naboo    
##  4 Shmi Sky…    163    NA black      fair       brown     fema… femin… Tatooine 
##  5 Beru Whi…    165    75 brown      light      blue      fema… femin… Tatooine 
##  6 Padmé Am…    165    45 brown      light      brown     fema… femin… Naboo    
##  7 Dormé        165    NA brown      light      brown     fema… femin… Naboo    
##  8 Jocasta …    167    NA white      fair       blue      fema… femin… Coruscant
##  9 Wedge An…    170    77 brown      fair       hazel     male  mascu… Corellia 
## 10 Palpatine    170    75 grey       pale       yellow    male  mascu… Naboo    
## # ℹ 21 more rows
## # ℹ 1 more variable: species <chr>
…
Renomeia colunas usando novo_nome = velho_nome

rename(.data, ...)

.data: A data frame, data frame extension (e.g. a tibble), or a lazy data frame (e.g. from dbplyr or dtplyr).
...	: For rename(): <tidy-select> Use new_name = old_name to rename selected variables.

starwars4 = rename(starwars3,
                haircolor = hair_color,
                skincolor = skin_color, 
                eyecolor = eye_color)
starwars4

## # A tibble: 31 × 10
##    name         height  mass haircolor skincolor eyecolor sex   gender homeworld
##    <chr>         <int> <dbl> <chr>     <chr>     <chr>    <chr> <chr>  <chr>    
##  1 Leia Organa     150    49 brown     light     brown    fema… femin… Alderaan 
##  2 Mon Mothma      150    NA auburn    fair      blue     fema… femin… Chandrila
##  3 Cordé           157    NA brown     light     brown    fema… femin… Naboo    
##  4 Shmi Skywal…    163    NA black     fair      brown    fema… femin… Tatooine 
##  5 Beru Whites…    165    75 brown     light     blue     fema… femin… Tatooine 
##  6 Padmé Amida…    165    45 brown     light     brown    fema… femin… Naboo    
##  7 Dormé           165    NA brown     light     brown    fema… femin… Naboo    
##  8 Jocasta Nu      167    NA white     fair      blue     fema… femin… Coruscant
##  9 Wedge Antil…    170    77 brown     fair      hazel    male  mascu… Corellia 
## 10 Palpatine       170    75 grey      pale      yellow   male  mascu… Naboo    
## # ℹ 21 more rows
## # ℹ 1 more variable: species <chr>
…
.data: A data frame, data frame extension (e.g. a tibble), or a lazy data frame (e.g. from dbplyr or dtplyr).
...	: <data-masking> Name-value pairs. The name gives the name of the column in the output. The value can be:
 - A vector of length 1, which will be recycled to the correct length.
 - A vector the same length as the current group (or the whole data frame if ungrouped).
 - NULL, to remove the column.

starwars5 = mutate(starwars4,
                height = height/100, # transf cm p/ metro
                BMI = mass / height^2,
                dummy = 1 # se não for vetor, tudo fica igual
                )
starwars5 = select(starwars5, BMI, dummy, everything()) # facilitar
starwars5

## # A tibble: 31 × 12
##      BMI dummy name       height  mass haircolor skincolor eyecolor sex   gender
##    <dbl> <dbl> <chr>       <dbl> <dbl> <chr>     <chr>     <chr>    <chr> <chr> 
##  1  21.8     1 Leia Orga…   1.5     49 brown     light     brown    fema… femin…
##  2  NA       1 Mon Mothma   1.5     NA auburn    fair      blue     fema… femin…
##  3  NA       1 Cordé        1.57    NA brown     light     brown    fema… femin…
##  4  NA       1 Shmi Skyw…   1.63    NA black     fair      brown    fema… femin…
##  5  27.5     1 Beru Whit…   1.65    75 brown     light     blue     fema… femin…
##  6  16.5     1 Padmé Ami…   1.65    45 brown     light     brown    fema… femin…
##  7  NA       1 Dormé        1.65    NA brown     light     brown    fema… femin…
##  8  NA       1 Jocasta Nu   1.67    NA white     fair      blue     fema… femin…
##  9  26.6     1 Wedge Ant…   1.7     77 brown     fair      hazel    male  mascu…
## 10  26.0     1 Palpatine    1.7     75 grey      pale      yellow   male  mascu…
## # ℹ 21 more rows
## # ℹ 2 more variables: homeworld <chr>, species <chr>
…
starwars2 = arrange(starwars1, height, desc(mass))
starwars3 = select(starwars2, name:eye_color, sex:species)
starwars4 = rename(starwars3,
                haircolor = hair_color,
                skincolor = skin_color, 
                eyecolor = eye_color)
starwars5 = mutate(starwars4,
                height = height/100,
                BMI = mass / height^2,
                dummy = 1
                )
starwars5 = select(starwars5, BMI, dummy, everything())
starwars5

## # A tibble: 31 × 12
##      BMI dummy name       height  mass haircolor skincolor eyecolor sex   gender
##    <dbl> <dbl> <chr>       <dbl> <dbl> <chr>     <chr>     <chr>    <chr> <chr> 
##  1  21.8     1 Leia Orga…   1.5     49 brown     light     brown    fema… femin…
##  2  NA       1 Mon Mothma   1.5     NA auburn    fair      blue     fema… femin…
##  3  NA       1 Cordé        1.57    NA brown     light     brown    fema… femin…
##  4  NA       1 Shmi Skyw…   1.63    NA black     fair      brown    fema… femin…
##  5  27.5     1 Beru Whit…   1.65    75 brown     light     blue     fema… femin…
##  6  16.5     1 Padmé Ami…   1.65    45 brown     light     brown    fema… femin…
##  7  NA       1 Dormé        1.65    NA brown     light     brown    fema… femin…
##  8  NA       1 Jocasta Nu   1.67    NA white     fair      blue     fema… femin…
##  9  26.6     1 Wedge Ant…   1.7     77 brown     fair      hazel    male  mascu…
## 10  26.0     1 Palpatine    1.7     75 grey      pale      yellow   male  mascu…
## # ℹ 21 more rows
## # ℹ 2 more variables: homeworld <chr>, species <chr>
…
starwars_pipe = starwars %>% 
    filter(species == "Human", height >= 100) %>%
    arrange(height, desc(mass)) %>%
    select(name:eye_color, sex:species) %>%
    rename(haircolor = hair_color,
           skincolor = skin_color, 
           eyecolor = eye_color) %>%
    mutate(height = height/100,
           BMI = mass / height^2,
           dummy = 1
           ) %>%
    select(BMI, dummy, everything())
starwars_pipe

## # A tibble: 31 × 12
##      BMI dummy name       height  mass haircolor skincolor eyecolor sex   gender
##    <dbl> <dbl> <chr>       <dbl> <dbl> <chr>     <chr>     <chr>    <chr> <chr> 
##  1  21.8     1 Leia Orga…   1.5     49 brown     light     brown    fema… femin…
##  2  NA       1 Mon Mothma   1.5     NA auburn    fair      blue     fema… femin…
##  3  NA       1 Cordé        1.57    NA brown     light     brown    fema… femin…
##  4  NA       1 Shmi Skyw…   1.63    NA black     fair      brown    fema… femin…
##  5  27.5     1 Beru Whit…   1.65    75 brown     light     blue     fema… femin…
##  6  16.5     1 Padmé Ami…   1.65    45 brown     light     brown    fema… femin…
##  7  NA       1 Dormé        1.65    NA brown     light     brown    fema… femin…
##  8  NA       1 Jocasta Nu   1.67    NA white     fair      blue     fema… femin…
##  9  26.6     1 Wedge Ant…   1.7     77 brown     fair      hazel    male  mascu…
## 10  26.0     1 Palpatine    1.7     75 grey      pale      yellow   male  mascu…
## # ℹ 21 more rows
## # ℹ 2 more variables: homeworld <chr>, species <chr>
…
Note que, ao usar summarise(), o data frame resultante não é agrupado e, portanto, não é necessário usar ungroup() neste caso.

Também é possível adicionar mais de uma variável para agrupar:

starwars %>% group_by(sex, hair_color) %>%
    summarise(
        n_obs = n(),
        mean_height = mean(height, na.rm = TRUE),
        mean_mass = mean(mass, na.rm = TRUE)
    )

## `summarise()` has grouped output by 'sex'. You can override using the `.groups`
## argument.

## # A tibble: 23 × 5
## # Groups:   sex [5]
##    sex            hair_color    n_obs mean_height mean_mass
##    <chr>          <chr>         <int>       <dbl>     <dbl>
##  1 female         auburn            1        150      NaN  
##  2 female         black             3        166.      53.1
##  3 female         blonde            1        168       55  
##  4 female         brown             6        160.      56.3
##  5 female         none              4        188.      54  
##  6 female         white             1        167      NaN  
##  7 hermaphroditic <NA>              1        175     1358  
##  8 male           auburn, grey      1        180      NaN  
##  9 male           auburn, white     1        182       77  
## 10 male           black             9        176.      81.0
## # ℹ 13 more rows
…
